Assignment 2
…
##The above command selected 3 variables to form a data set, thanksgiving 2. The variables include ID, type and value. consequently, all missing values in the Value variable were omitted.

#11-12. Intall package widyr and use pairwise_cor() function https://www.rdocumentation.org/packages/widyr/versions/0.1.3/topics/pairwise_cor and Write 2-3 sentences with your explanation of what it does.

library(widyr)
thankgiving2%>%
pairwise_cor(value, id, sort = TRUE)

## # A tibble: 992 x 3
##    item1               item2               correlation
##    <chr>               <chr>                     <dbl>
##  1 Cookies             Brownies                  0.411
##  2 Brownies            Cookies                   0.411
##  3 Sweet Potato        Macaroni and cheese       0.365
##  4 Macaroni and cheese Sweet Potato              0.365
##  5 Rolls/biscuits      Mashed potatoes           0.341
##  6 Mashed potatoes     Rolls/biscuits            0.341
##  7 Peach cobbler       Sweet Potato              0.339
##  8 Sweet Potato        Peach cobbler             0.339
##  9 Pumpkin             Mashed potatoes           0.290
## 10 Mashed potatoes     Pumpkin                   0.290
## # ... with 982 more rows
…
